{
  "$schema": "http://json-schema.org/draft-07/schema#",
  "title": "PaginatedResponse",
  "description": "Standard paginated response shape for any list endpoint (Skill 09 - advanced-querying)",
  "type": "object",
  "required": ["data", "meta"],
  "properties": {
    "data": {
      "type": "array",
      "description": "Array of items for the current page.",
      "items": {
        "type": "object"
      }
    },
    "meta": {
      "type": "object",
      "required": ["total", "page", "limit"],
      "properties": {
        "total": {
          "type": "integer",
          "description": "Total number of records matching the active filters",
          "example": 1250
        },
        "page": {
          "type": "integer",
          "description": "Current page number using the convention chosen by the API",
          "example": 1
        },
        "limit": {
          "type": "integer",
          "description": "Number of items requested per page after normalization and max-limit enforcement",
          "example": 10
        },
        "totalPages": {
          "type": "integer",
          "description": "Optional total page count when the API chooses to expose it",
          "example": 125
        },
        "hasNext": {
          "type": "boolean",
          "description": "Optional navigation hint indicating whether another page exists",
          "example": true
        },
        "hasPrevious": {
          "type": "boolean",
          "description": "Optional navigation hint indicating whether a previous page exists",
          "example": false
        }
      },
      "additionalProperties": false
    }
  },
  "additionalProperties": false,
  "examples": [
    {
      "data": [
        {
          "id": 1,
          "name": "Product A",
          "price": 99.99
        },
        {
          "id": 2,
          "name": "Product B",
          "price": 149.99
        }
      ],
      "meta": {
        "total": 1250,
        "page": 1,
        "limit": 10,
        "totalPages": 125,
        "hasNext": true,
        "hasPrevious": false
      }
    }
  ]
}
